Gov 50 Final Project
…
##BASIC PLOTS
aqi_state_mean2020 <- aqi_2020 |>
  group_by(State) |>
  summarize(state_mean = mean(`Good Days`)) 
aqi_state_mean_plot2020 <- aqi_state_mean2020 |>
  ggplot(aes(x = State, y = state_mean)) +
  geom_point()
aqi_state_mean2020

# A tibble: 54 × 2
   State                state_mean
   <chr>                     <dbl>
 1 Alabama                    242.
 2 Alaska                     238.
 3 Arizona                    244.
 4 Arkansas                   225 
 5 California                 219.
 6 Colorado                   219.
 7 Connecticut                274.
 8 Country Of Mexico           63 
 9 Delaware                   320.
10 District Of Columbia       314 
# … with 44 more rows
…
